[
 {
  "directory": "/home/shockrah/Lab/world",
  "arguments": [
   "g++",
   "-Wall",
   "-O2",
   "-Werror",
   "-c",
   "canvas/canvas.cc",
   "-o",
   "bin/canvas.o",
   "-lm",
   "-lSDL2"
  ],
  "file": "canvas/canvas.cc"
 },
 {
  "directory": "/home/shockrah/Lab/world",
  "arguments": [
   "g++",
   "-Wall",
   "-O2",
   "-Werror",
   "-c",
   "engine/engine.cc",
   "-o",
   "bin/engine.o",
   "-lm",
   "-lSDL2"
  ],
  "file": "engine/engine.cc"
 },
 {
  "directory": "/home/shockrah/Lab/world",
  "arguments": [
   "g++",
   "-Wall",
   "-O2",
   "-Werror",
   "-c",
   "rain/rain.cc",
   "-o",
   "bin/rain.o",
   "-lm",
   "-lSDL2"
  ],
  "file": "rain/rain.cc"
 }
]
